digraph jtorx {
// 859 49679
	"858_567851" -> "859_567852" [label=""]
subgraph cluster_step859{
	label=859	{
		"859_567852"[label="567852",color=grey]
		[rank=same]
	}
}

// 860 51817
	"859_567852" -> "860_567923" [label=""]
subgraph cluster_step860{
	label=860	{
		"860_567923"[label="567923",color=grey]
		[rank=same]
	}
	{
		"860_564010"[label="564010"]
		[rank=same]
	}
	"860_567923" -> "860_564010" [style=dashed,color=red,label=""]
}

// 861 51895
	"860_567923" -> "861_570900" [label=""]
	"860_564010" -> "861_564035" [label=""]
subgraph cluster_step861{
	label=861	{
		"861_564035"[label="564035",color=grey]
		"861_570900"[label="570900",color=grey]
		[rank=same]
	}
	{
		"861_570999"[label="570999"]
		[rank=same]
	}
	"861_564035" -> "861_570999" [style=dashed,color=red,label=""]
	"861_570900" -> "861_564035" [style=dashed,color=red,label=""]
}

// 862 51979
	"861_564035" -> "862_570961" [label=""]
	"861_570900" -> "862_571023" [label=""]
	"861_570999" -> "862_571085" [label=""]
subgraph cluster_step862{
	label=862	{
		"862_570961"[label="570961",color=grey]
		"862_571023"[label="571023",color=grey]
		"862_571085"[label="571085",color=grey]
		[rank=same]
	}
	{
		"862_571310"[label="571310"]
		[rank=same]
	}
	"862_570961" -> "862_571085" [style=dashed,color=red,label=""]
	"862_571023" -> "862_570961" [style=dashed,color=red,label=""]
	"862_571085" -> "862_571310" [style=dashed,color=red,label=""]
}

// 863 52031
	"862_570961" -> "863_571184" [label=""]
	"862_571023" -> "863_571246" [label=""]
	"862_571085" -> "863_571308" [label=""]
	"862_571310" -> "863_571371" [label=""]
subgraph cluster_step863{
	label=863	{
		"863_571184"[label="571184",color=grey]
		"863_571246"[label="571246",color=grey]
		"863_571308"[label="571308",color=grey]
		"863_571371"[label="571371",color=grey]
		[rank=same]
	}
	{
		"863_572443"[label="572443"]
		"863_571637"[label="571637"]
		"863_572510"[label="572510"]
		"863_573516"[label="573516"]
		"863_571973"[label="571973"]
		"863_572241"[label="572241"]
		"863_572040"[label="572040"]
		"863_572511"[label="572511"]
		"863_572645"[label="572645"]
		"863_572979"[label="572979"]
		"863_571770"[label="571770"]
		"863_571839"[label="571839"]
		"863_572844"[label="572844"]
		"863_572777"[label="572777"]
		"863_572578"[label="572578"]
		"863_571771"[label="571771"]
		"863_573917"[label="573917"]
		"863_572240"[label="572240"]
		"863_572106"[label="572106"]
		"863_572442"[label="572442"]
		"863_571971"[label="571971"]
		"863_572778"[label="572778"]
		"863_571704"[label="571704"]
		"863_571906"[label="571906"]
		"863_573247"[label="573247"]
		"863_571702"[label="571702"]
		"863_573851"[label="573851"]
		"863_572307"[label="572307"]
		"863_571769"[label="571769"]
		"863_571837"[label="571837"]
		"863_571438"[label="571438"]
		"863_571972"[label="571972"]
		"863_574050"[label="574050"]
		"863_572107"[label="572107"]
		"863_572308"[label="572308"]
		"863_572711"[label="572711"]
		"863_571703"[label="571703"]
		"863_572845"[label="572845"]
		"863_572039"[label="572039"]
		"863_572710"[label="572710"]
		"863_571905"[label="571905"]
		"863_571504"[label="571504"]
		"863_571571"[label="571571"]
		"863_571838"[label="571838"]
		[rank=same]
	}
	"863_571184" -> "863_571438" [style=dashed,color=red,label=""]
	"863_571184" -> "863_571308" [style=dashed,color=red,label=""]
	"863_571246" -> "863_571504" [style=dashed,color=red,label=""]
	"863_571246" -> "863_571184" [style=dashed,color=red,label=""]
	"863_571308" -> "863_571571" [style=dashed,color=red,label=""]
	"863_571308" -> "863_571371" [style=dashed,color=red,label=""]
	"863_571371" -> "863_571637" [style=dashed,color=red,label=""]
	"863_571438" -> "863_571704" [style=dashed,color=red,label=""]
	"863_571438" -> "863_571703" [style=dashed,color=red,label=""]
	"863_571438" -> "863_571702" [style=dashed,color=red,label=""]
	"863_571504" -> "863_571771" [style=dashed,color=red,label=""]
	"863_571504" -> "863_571770" [style=dashed,color=red,label=""]
	"863_571504" -> "863_571769" [style=dashed,color=red,label=""]
	"863_571571" -> "863_571839" [style=dashed,color=red,label=""]
	"863_571571" -> "863_571838" [style=dashed,color=red,label=""]
	"863_571571" -> "863_571837" [style=dashed,color=red,label=""]
	"863_571637" -> "863_571906" [style=dashed,color=red,label=""]
	"863_571637" -> "863_571905" [style=dashed,color=red,label=""]
	"863_571704" -> "863_571973" [style=dashed,color=red,label=""]
	"863_571704" -> "863_571972" [style=dashed,color=red,label=""]
	"863_571704" -> "863_571971" [style=dashed,color=red,label=""]
	"863_571703" -> "863_572040" [style=dashed,color=red,label=""]
	"863_571703" -> "863_572039" [style=dashed,color=red,label=""]
	"863_571702" -> "863_572107" [style=dashed,color=red,label=""]
	"863_571702" -> "863_572106" [style=dashed,color=red,label=""]
	"863_571771" -> "863_571704" [style=dashed,color=red,label=""]
	"863_571771" -> "863_571703" [style=dashed,color=red,label=""]
	"863_571771" -> "863_571702" [style=dashed,color=red,label=""]
	"863_571770" -> "863_572241" [style=dashed,color=red,label=""]
	"863_571770" -> "863_572240" [style=dashed,color=red,label=""]
	"863_571769" -> "863_572308" [style=dashed,color=red,label=""]
	"863_571769" -> "863_572307" [style=dashed,color=red,label=""]
	"863_571839" -> "863_571906" [style=dashed,color=red,label=""]
	"863_571839" -> "863_571905" [style=dashed,color=red,label=""]
	"863_571838" -> "863_572443" [style=dashed,color=red,label=""]
	"863_571838" -> "863_572442" [style=dashed,color=red,label=""]
	"863_571837" -> "863_572511" [style=dashed,color=red,label=""]
	"863_571837" -> "863_572510" [style=dashed,color=red,label=""]
	"863_571906" -> "863_572578" [style=dashed,color=red,label=""]
	"863_571905" -> "863_572645" [style=dashed,color=red,label=""]
	"863_571973" -> "863_572711" [style=dashed,color=red,label=""]
	"863_571973" -> "863_572710" [style=dashed,color=red,label=""]
	"863_571972" -> "863_572778" [style=dashed,color=red,label=""]
	"863_571972" -> "863_572777" [style=dashed,color=red,label=""]
	"863_571971" -> "863_572845" [style=dashed,color=red,label=""]
	"863_571971" -> "863_572844" [style=dashed,color=red,label=""]
	"863_572040" -> "863_572778" [style=dashed,color=red,label=""]
	"863_572040" -> "863_572777" [style=dashed,color=red,label=""]
	"863_572039" -> "863_572979" [style=dashed,color=red,label=""]
	"863_572107" -> "863_572845" [style=dashed,color=red,label=""]
	"863_572107" -> "863_572844" [style=dashed,color=red,label=""]
	"863_572106" -> "863_572979" [style=dashed,color=red,label=""]
	"863_572241" -> "863_572040" [style=dashed,color=red,label=""]
	"863_572241" -> "863_572039" [style=dashed,color=red,label=""]
	"863_572240" -> "863_573247" [style=dashed,color=red,label=""]
	"863_572308" -> "863_572107" [style=dashed,color=red,label=""]
	"863_572308" -> "863_572106" [style=dashed,color=red,label=""]
	"863_572307" -> "863_573247" [style=dashed,color=red,label=""]
	"863_572443" -> "863_572578" [style=dashed,color=red,label=""]
	"863_572442" -> "863_573516" [style=dashed,color=red,label=""]
	"863_572511" -> "863_572645" [style=dashed,color=red,label=""]
	"863_572510" -> "863_573516" [style=dashed,color=red,label=""]
	"863_572711" -> "863_573851" [style=dashed,color=red,label=""]
	"863_572710" -> "863_573917" [style=dashed,color=red,label=""]
	"863_572778" -> "863_573851" [style=dashed,color=red,label=""]
	"863_572777" -> "863_574050" [style=dashed,color=red,label=""]
	"863_572845" -> "863_573917" [style=dashed,color=red,label=""]
	"863_572844" -> "863_574050" [style=dashed,color=red,label=""]
	"863_572979" -> "863_574050" [style=dashed,color=red,label=""]
	"863_573247" -> "863_572979" [style=dashed,color=red,label=""]
}

// 864 52097
	"863_571308" -> "864_571569" [label=""]
	"863_571371" -> "864_565252" [label=""]
	"863_571571" -> "864_571836" [label=""]
	"863_571637" -> "864_571904" [label=""]
	"863_571839" -> "864_571904" [label=""]
	"863_571838" -> "864_572441" [label=""]
	"863_571837" -> "864_572509" [label=""]
	"863_571906" -> "864_572577" [label=""]
	"863_571905" -> "864_572644" [label=""]
	"863_572443" -> "864_572577" [label=""]
	"863_572442" -> "864_573515" [label=""]
	"863_572511" -> "864_572644" [label=""]
	"863_572510" -> "864_573515" [label=""]
	"863_572578" -> "864_573718" [label=""]
	"863_572645" -> "864_573718" [label=""]
	"863_573516" -> "864_573718" [label=""]
subgraph cluster_step864{
	label=864	{
		"864_565252"[label="565252",color=grey]
		"864_571569"[label="571569",color=grey]
		"864_571836"[label="571836",color=grey]
		"864_571904"[label="571904",color=grey]
		"864_572441"[label="572441",color=grey]
		"864_572509"[label="572509",color=grey]
		"864_572577"[label="572577",color=grey]
		"864_572644"[label="572644",color=grey]
		"864_573515"[label="573515",color=grey]
		"864_573718"[label="573718",color=grey]
		[rank=same]
	}
	{
		"864_571973"[label="571973"]
		"864_568964"[label="568964"]
		"864_573851"[label="573851"]
		"864_574713"[label="574713"]
		"864_574647"[label="574647"]
		"864_572844"[label="572844"]
		"864_572777"[label="572777"]
		"864_571972"[label="571972"]
		"864_573917"[label="573917"]
		"864_574050"[label="574050"]
		"864_572711"[label="572711"]
		"864_572845"[label="572845"]
		"864_571971"[label="571971"]
		"864_572710"[label="572710"]
		"864_572778"[label="572778"]
		[rank=same]
	}
	"864_565252" -> "864_574647" [style=dashed,color=red,label=""]
	"864_571569" -> "864_574713" [style=dashed,color=red,label=""]
	"864_571569" -> "864_568964" [style=dashed,color=red,label=""]
	"864_571836" -> "864_571973" [style=dashed,color=red,label=""]
	"864_571836" -> "864_571972" [style=dashed,color=red,label=""]
	"864_571836" -> "864_571971" [style=dashed,color=red,label=""]
	"864_571904" -> "864_572711" [style=dashed,color=red,label=""]
	"864_571904" -> "864_572710" [style=dashed,color=red,label=""]
	"864_572441" -> "864_572778" [style=dashed,color=red,label=""]
	"864_572441" -> "864_572777" [style=dashed,color=red,label=""]
	"864_572509" -> "864_572845" [style=dashed,color=red,label=""]
	"864_572509" -> "864_572844" [style=dashed,color=red,label=""]
	"864_572577" -> "864_573851" [style=dashed,color=red,label=""]
	"864_572644" -> "864_573917" [style=dashed,color=red,label=""]
	"864_573515" -> "864_574050" [style=dashed,color=red,label=""]
	"864_574647" -> "864_572711" [style=dashed,color=red,label=""]
	"864_574647" -> "864_572710" [style=dashed,color=red,label=""]
	"864_574713" -> "864_571973" [style=dashed,color=red,label=""]
	"864_574713" -> "864_571972" [style=dashed,color=red,label=""]
	"864_574713" -> "864_571971" [style=dashed,color=red,label=""]
	"864_568964" -> "864_574647" [style=dashed,color=red,label=""]
	"864_571973" -> "864_572711" [style=dashed,color=red,label=""]
	"864_571973" -> "864_572710" [style=dashed,color=red,label=""]
	"864_571972" -> "864_572778" [style=dashed,color=red,label=""]
	"864_571972" -> "864_572777" [style=dashed,color=red,label=""]
	"864_571971" -> "864_572845" [style=dashed,color=red,label=""]
	"864_571971" -> "864_572844" [style=dashed,color=red,label=""]
	"864_572711" -> "864_573851" [style=dashed,color=red,label=""]
	"864_572710" -> "864_573917" [style=dashed,color=red,label=""]
	"864_572778" -> "864_573851" [style=dashed,color=red,label=""]
	"864_572777" -> "864_574050" [style=dashed,color=red,label=""]
	"864_572845" -> "864_573917" [style=dashed,color=red,label=""]
	"864_572844" -> "864_574050" [style=dashed,color=red,label=""]
}

// 865 52164
	"864_565252" -> "865_574636" [label=""]
	"864_571569" -> "865_574701" [label=""]
	"864_571836" -> "865_574767" [label=""]
	"864_571904" -> "865_574834" [label=""]
	"864_572441" -> "865_574901" [label=""]
	"864_572509" -> "865_574968" [label=""]
	"864_572577" -> "865_575035" [label=""]
	"864_572644" -> "865_575101" [label=""]
	"864_573515" -> "865_575168" [label=""]
	"864_573718" -> "865_575235" [label=""]
	"864_574647" -> "865_575299" [label=""]
	"864_574713" -> "865_575365" [label=""]
	"864_568964" -> "865_575432" [label=""]
	"864_571973" -> "865_572699" [label=""]
	"864_571972" -> "865_572766" [label=""]
	"864_571971" -> "865_572833" [label=""]
	"864_572711" -> "865_573840" [label=""]
	"864_572710" -> "865_573906" [label=""]
	"864_572778" -> "865_573972" [label=""]
	"864_572777" -> "865_574039" [label=""]
	"864_572845" -> "865_574105" [label=""]
	"864_572844" -> "865_574172" [label=""]
	"864_573851" -> "865_574440" [label=""]
	"864_573917" -> "865_574506" [label=""]
	"864_574050" -> "865_574572" [label=""]
subgraph cluster_step865{
	label=865	{
		"865_572699"[label="572699",color=grey]
		"865_572766"[label="572766",color=grey]
		"865_572833"[label="572833",color=grey]
		"865_573840"[label="573840",color=grey]
		"865_573906"[label="573906",color=grey]
		"865_573972"[label="573972",color=grey]
		"865_574039"[label="574039",color=grey]
		"865_574105"[label="574105",color=grey]
		"865_574172"[label="574172",color=grey]
		"865_574440"[label="574440",color=grey]
		"865_574506"[label="574506",color=grey]
		"865_574572"[label="574572",color=grey]
		"865_574636"[label="574636",color=grey]
		"865_574701"[label="574701",color=grey]
		"865_574767"[label="574767",color=grey]
		"865_574834"[label="574834",color=grey]
		"865_574901"[label="574901",color=grey]
		"865_574968"[label="574968",color=grey]
		"865_575035"[label="575035",color=grey]
		"865_575101"[label="575101",color=grey]
		"865_575168"[label="575168",color=grey]
		"865_575235"[label="575235",color=grey]
		"865_575299"[label="575299",color=grey]
		"865_575365"[label="575365",color=grey]
		"865_575432"[label="575432",color=grey]
		[rank=same]
	}
	{
		"865_577512"[label="577512"]
		"865_576312"[label="576312"]
		"865_577579"[label="577579"]
		"865_573851"[label="573851"]
		"865_576113"[label="576113"]
		"865_575711"[label="575711"]
		"865_577511"[label="577511"]
		"865_573917"[label="573917"]
		"865_577445"[label="577445"]
		"865_577646"[label="577646"]
		"865_572711"[label="572711"]
		"865_575778"[label="575778"]
		"865_572710"[label="572710"]
		"865_575510"[label="575510"]
		[rank=same]
	}
	"865_572699" -> "865_575510" [style=dashed,color=red,label=""]
	"865_572699" -> "865_573840" [style=dashed,color=red,label=""]
	"865_572699" -> "865_573906" [style=dashed,color=red,label=""]
	"865_572766" -> "865_573972" [style=dashed,color=red,label=""]
	"865_572766" -> "865_574039" [style=dashed,color=red,label=""]
	"865_572833" -> "865_574105" [style=dashed,color=red,label=""]
	"865_572833" -> "865_574172" [style=dashed,color=red,label=""]
	"865_573840" -> "865_575711" [style=dashed,color=red,label=""]
	"865_573840" -> "865_574440" [style=dashed,color=red,label=""]
	"865_573906" -> "865_575778" [style=dashed,color=red,label=""]
	"865_573906" -> "865_574506" [style=dashed,color=red,label=""]
	"865_573972" -> "865_575711" [style=dashed,color=red,label=""]
	"865_573972" -> "865_574440" [style=dashed,color=red,label=""]
	"865_574039" -> "865_574572" [style=dashed,color=red,label=""]
	"865_574105" -> "865_575778" [style=dashed,color=red,label=""]
	"865_574105" -> "865_574506" [style=dashed,color=red,label=""]
	"865_574172" -> "865_574572" [style=dashed,color=red,label=""]
	"865_574440" -> "865_576113" [style=dashed,color=red,label=""]
	"865_574506" -> "865_576113" [style=dashed,color=red,label=""]
	"865_574572" -> "865_576113" [style=dashed,color=red,label=""]
	"865_574636" -> "865_575299" [style=dashed,color=red,label=""]
	"865_574636" -> "865_576312" [style=dashed,color=red,label=""]
	"865_574701" -> "865_575365" [style=dashed,color=red,label=""]
	"865_574701" -> "865_575432" [style=dashed,color=red,label=""]
	"865_574767" -> "865_572699" [style=dashed,color=red,label=""]
	"865_574767" -> "865_572766" [style=dashed,color=red,label=""]
	"865_574767" -> "865_572833" [style=dashed,color=red,label=""]
	"865_574834" -> "865_575510" [style=dashed,color=red,label=""]
	"865_574834" -> "865_573840" [style=dashed,color=red,label=""]
	"865_574834" -> "865_573906" [style=dashed,color=red,label=""]
	"865_574901" -> "865_573972" [style=dashed,color=red,label=""]
	"865_574901" -> "865_574039" [style=dashed,color=red,label=""]
	"865_574968" -> "865_574105" [style=dashed,color=red,label=""]
	"865_574968" -> "865_574172" [style=dashed,color=red,label=""]
	"865_575035" -> "865_575711" [style=dashed,color=red,label=""]
	"865_575035" -> "865_574440" [style=dashed,color=red,label=""]
	"865_575101" -> "865_575778" [style=dashed,color=red,label=""]
	"865_575101" -> "865_574506" [style=dashed,color=red,label=""]
	"865_575168" -> "865_574572" [style=dashed,color=red,label=""]
	"865_575235" -> "865_576113" [style=dashed,color=red,label=""]
	"865_575299" -> "865_575510" [style=dashed,color=red,label=""]
	"865_575299" -> "865_573840" [style=dashed,color=red,label=""]
	"865_575299" -> "865_573906" [style=dashed,color=red,label=""]
	"865_575365" -> "865_572699" [style=dashed,color=red,label=""]
	"865_575365" -> "865_572766" [style=dashed,color=red,label=""]
	"865_575365" -> "865_572833" [style=dashed,color=red,label=""]
	"865_575432" -> "865_575299" [style=dashed,color=red,label=""]
	"865_575432" -> "865_576312" [style=dashed,color=red,label=""]
	"865_575510" -> "865_572711" [style=dashed,color=red,label=""]
	"865_575510" -> "865_572710" [style=dashed,color=red,label=""]
	"865_575711" -> "865_573851" [style=dashed,color=red,label=""]
	"865_575778" -> "865_573917" [style=dashed,color=red,label=""]
	"865_576312" -> "865_577445" [style=dashed,color=red,label=""]
	"865_572711" -> "865_573851" [style=dashed,color=red,label=""]
	"865_572710" -> "865_573917" [style=dashed,color=red,label=""]
	"865_577445" -> "865_577512" [style=dashed,color=red,label=""]
	"865_577445" -> "865_577511" [style=dashed,color=red,label=""]
	"865_577512" -> "865_577579" [style=dashed,color=red,label=""]
	"865_577511" -> "865_577646" [style=dashed,color=red,label=""]
}

// 866 52204
	"865_572766" -> "866_575511" [label=""]
	"865_573840" -> "866_575645" [label=""]
	"865_573972" -> "866_575779" [label=""]
	"865_574039" -> "866_575846" [label=""]
	"865_574172" -> "866_575980" [label=""]
	"865_574440" -> "866_576047" [label=""]
	"865_574506" -> "866_576114" [label=""]
	"865_574572" -> "866_576181" [label=""]
	"865_574901" -> "866_576514" [label=""]
	"865_575035" -> "866_576648" [label=""]
	"865_575168" -> "866_576782" [label=""]
	"865_575235" -> "866_576849" [label=""]
	"865_575711" -> "866_577182" [label=""]
	"865_576113" -> "866_577314" [label=""]
	"865_572711" -> "866_573786" [label=""]
	"865_573851" -> "866_574385" [label=""]
	"865_573917" -> "866_574451" [label=""]
	"865_577512" -> "866_577513" [label=""]
	"865_577579" -> "866_577647" [label=""]
	"865_577646" -> "866_577714" [label=""]
subgraph cluster_step866{
	label=866	{
		"866_573786"[label="573786",color=grey]
		"866_574385"[label="574385",color=grey]
		"866_574451"[label="574451",color=grey]
		"866_575511"[label="575511",color=grey]
		"866_575645"[label="575645",color=grey]
		"866_575779"[label="575779",color=grey]
		"866_575846"[label="575846",color=grey]
		"866_575980"[label="575980",color=grey]
		"866_576047"[label="576047",color=grey]
		"866_576114"[label="576114",color=grey]
		"866_576181"[label="576181",color=grey]
		"866_576514"[label="576514",color=grey]
		"866_576648"[label="576648",color=grey]
		"866_576782"[label="576782",color=grey]
		"866_576849"[label="576849",color=grey]
		"866_577182"[label="577182",color=grey]
		"866_577314"[label="577314",color=grey]
		"866_577513"[label="577513",color=grey]
		"866_577647"[label="577647",color=grey]
		"866_577714"[label="577714",color=grey]
		[rank=same]
	}
	"866_573786" -> "866_574385" [style=dashed,color=red,label=""]
	"866_575511" -> "866_575779" [style=dashed,color=red,label=""]
	"866_575511" -> "866_575846" [style=dashed,color=red,label=""]
	"866_575645" -> "866_577182" [style=dashed,color=red,label=""]
	"866_575645" -> "866_576047" [style=dashed,color=red,label=""]
	"866_575779" -> "866_577182" [style=dashed,color=red,label=""]
	"866_575779" -> "866_576047" [style=dashed,color=red,label=""]
	"866_575846" -> "866_576181" [style=dashed,color=red,label=""]
	"866_575980" -> "866_576181" [style=dashed,color=red,label=""]
	"866_576047" -> "866_577314" [style=dashed,color=red,label=""]
	"866_576114" -> "866_577314" [style=dashed,color=red,label=""]
	"866_576181" -> "866_577314" [style=dashed,color=red,label=""]
	"866_576514" -> "866_575779" [style=dashed,color=red,label=""]
	"866_576514" -> "866_575846" [style=dashed,color=red,label=""]
	"866_576648" -> "866_577182" [style=dashed,color=red,label=""]
	"866_576648" -> "866_576047" [style=dashed,color=red,label=""]
	"866_576782" -> "866_576181" [style=dashed,color=red,label=""]
	"866_576849" -> "866_577314" [style=dashed,color=red,label=""]
	"866_577182" -> "866_574385" [style=dashed,color=red,label=""]
	"866_577513" -> "866_577647" [style=dashed,color=red,label=""]
}

// 867 52281
	"866_574385" -> "867_577874" [label=""]
	"866_574451" -> "867_577939" [label=""]
	"866_575846" -> "867_578202" [label=""]
	"866_575980" -> "867_578268" [label=""]
	"866_576047" -> "867_578334" [label=""]
	"866_576114" -> "867_578400" [label=""]
	"866_576181" -> "867_532036" [label=""]
	"866_576782" -> "867_578664" [label=""]
	"866_576849" -> "867_578730" [label=""]
	"866_577314" -> "867_529975" [label=""]
	"866_577647" -> "867_578992" [label=""]
	"866_577714" -> "867_579058" [label=""]
subgraph cluster_step867{
	label=867	{
		"867_529975"[label="529975",color=grey]
		"867_532036"[label="532036",color=grey]
		"867_577874"[label="577874",color=grey]
		"867_577939"[label="577939",color=grey]
		"867_578202"[label="578202",color=grey]
		"867_578268"[label="578268",color=grey]
		"867_578334"[label="578334",color=grey]
		"867_578400"[label="578400",color=grey]
		"867_578664"[label="578664",color=grey]
		"867_578730"[label="578730",color=grey]
		"867_578992"[label="578992",color=grey]
		"867_579058"[label="579058",color=grey]
		[rank=same]
	}
	"867_532036" -> "867_529975" [style=dashed,color=red,label=""]
	"867_578202" -> "867_532036" [style=dashed,color=red,label=""]
	"867_578268" -> "867_532036" [style=dashed,color=red,label=""]
	"867_578334" -> "867_529975" [style=dashed,color=red,label=""]
	"867_578400" -> "867_529975" [style=dashed,color=red,label=""]
	"867_578664" -> "867_532036" [style=dashed,color=red,label=""]
	"867_578730" -> "867_529975" [style=dashed,color=red,label=""]
}

// 868 52320
	"867_529975" -> "868_530031" [label=""]
	"867_532036" -> "868_579151" [label=""]
	"867_577874" -> "868_579216" [label=""]
	"867_577939" -> "868_579280" [label=""]
	"867_578202" -> "868_579344" [label=""]
	"867_578268" -> "868_579409" [label=""]
	"867_578334" -> "868_579474" [label=""]
	"867_578400" -> "868_579539" [label=""]
	"867_578664" -> "868_579604" [label=""]
	"867_578730" -> "868_579669" [label=""]
	"867_578992" -> "868_579734" [label=""]
	"867_579058" -> "868_579799" [label=""]
subgraph cluster_step868{
	label=868	{
		"868_530031"[label="530031",color=grey]
		"868_579151"[label="579151",color=grey]
		"868_579216"[label="579216",color=grey]
		"868_579280"[label="579280",color=grey]
		"868_579344"[label="579344",color=grey]
		"868_579409"[label="579409",color=grey]
		"868_579474"[label="579474",color=grey]
		"868_579539"[label="579539",color=grey]
		"868_579604"[label="579604",color=grey]
		"868_579669"[label="579669",color=grey]
		"868_579734"[label="579734",color=grey]
		"868_579799"[label="579799",color=grey]
		[rank=same]
	}
	{
		"868_580524"[label="580524"]
		"868_579873"[label="579873"]
		[rank=same]
	}
	"868_530031" -> "868_579873" [style=dashed,color=red,label=""]
	"868_579151" -> "868_530031" [style=dashed,color=red,label=""]
	"868_579216" -> "868_579873" [style=dashed,color=red,label=""]
	"868_579280" -> "868_579873" [style=dashed,color=red,label=""]
	"868_579344" -> "868_579151" [style=dashed,color=red,label=""]
	"868_579409" -> "868_579151" [style=dashed,color=red,label=""]
	"868_579474" -> "868_530031" [style=dashed,color=red,label=""]
	"868_579539" -> "868_530031" [style=dashed,color=red,label=""]
	"868_579604" -> "868_579151" [style=dashed,color=red,label=""]
	"868_579669" -> "868_530031" [style=dashed,color=red,label=""]
	"868_579734" -> "868_580524" [style=dashed,color=red,label=""]
	"868_579799" -> "868_580524" [style=dashed,color=red,label=""]
}

// 869 52411
	"868_530031" -> "869_579809" [label=""]
	"868_579151" -> "869_579874" [label=""]
	"868_579216" -> "869_579939" [label=""]
	"868_579280" -> "869_580004" [label=""]
	"868_579344" -> "869_580069" [label=""]
	"868_579409" -> "869_580134" [label=""]
	"868_579474" -> "869_580199" [label=""]
	"868_579539" -> "869_580264" [label=""]
	"868_579604" -> "869_580329" [label=""]
	"868_579669" -> "869_580394" [label=""]
	"868_579734" -> "869_580459" [label=""]
	"868_579799" -> "869_580525" [label=""]
	"868_579873" -> "869_580591" [label=""]
	"868_580524" -> "869_580655" [label=""]
subgraph cluster_step869{
	label=869	{
		"869_579809"[label="579809",color=grey]
		"869_579874"[label="579874",color=grey]
		"869_579939"[label="579939",color=grey]
		"869_580004"[label="580004",color=grey]
		"869_580069"[label="580069",color=grey]
		"869_580134"[label="580134",color=grey]
		"869_580199"[label="580199",color=grey]
		"869_580264"[label="580264",color=grey]
		"869_580329"[label="580329",color=grey]
		"869_580394"[label="580394",color=grey]
		"869_580459"[label="580459",color=grey]
		"869_580525"[label="580525",color=grey]
		"869_580591"[label="580591",color=grey]
		"869_580655"[label="580655",color=grey]
		[rank=same]
	}
	{
		"869_581632"[label="581632"]
		"869_540999"[label="540999"]
		[rank=same]
	}
	"869_579809" -> "869_580591" [style=dashed,color=red,label=""]
	"869_579874" -> "869_579809" [style=dashed,color=red,label=""]
	"869_579939" -> "869_580591" [style=dashed,color=red,label=""]
	"869_580004" -> "869_580591" [style=dashed,color=red,label=""]
	"869_580069" -> "869_579874" [style=dashed,color=red,label=""]
	"869_580134" -> "869_579874" [style=dashed,color=red,label=""]
	"869_580199" -> "869_579809" [style=dashed,color=red,label=""]
	"869_580264" -> "869_579809" [style=dashed,color=red,label=""]
	"869_580329" -> "869_579874" [style=dashed,color=red,label=""]
	"869_580394" -> "869_579809" [style=dashed,color=red,label=""]
	"869_580459" -> "869_580655" [style=dashed,color=red,label=""]
	"869_580525" -> "869_580655" [style=dashed,color=red,label=""]
	"869_580591" -> "869_540999" [style=dashed,color=red,label=""]
	"869_580655" -> "869_581632" [style=dashed,color=red,label=""]
}

// 870 52471
	"869_540999" -> "870_540999" [style=dashed,color=blue,label=""]
subgraph cluster_step870{
	label=870	{
		"870_540999"[label="540999",color=grey]
		[rank=same]
	}
}

// 871 52553
	"870_540999" -> "871_542168" [label=""]
subgraph cluster_step871{
	label=871	{
		"871_542168"[label="542168",color=grey]
		[rank=same]
	}
	{
		"871_581762"[label="581762"]
		[rank=same]
	}
	"871_542168" -> "871_581762" [style=dashed,color=red,label=""]
}

// 872 52600
	"871_581762" -> "872_581762" [style=dashed,color=blue,label=""]
subgraph cluster_step872{
	label=872	{
		"872_581762"[label="581762",color=grey]
		[rank=same]
	}
}

// 873 52650
	"872_581762" -> "873_581777" [label=""]
subgraph cluster_step873{
	label=873	{
		"873_581777"[label="581777",color=grey]
		[rank=same]
	}
	{
		"873_546327"[label="546327"]
		[rank=same]
	}
	"873_581777" -> "873_546327" [style=dashed,color=red,label=""]
}

// 874 52729
	"873_546327" -> "874_546327" [style=dashed,color=blue,label=""]
subgraph cluster_step874{
	label=874	{
		"874_546327"[label="546327",color=grey]
		[rank=same]
	}
}

// 875 52824
	"874_546327" -> "875_546466" [label=""]
subgraph cluster_step875{
	label=875	{
		"875_546466"[label="546466",color=grey]
		[rank=same]
	}
	{
		"875_581956"[label="581956"]
		[rank=same]
	}
	"875_546466" -> "875_581956" [style=dashed,color=red,label=""]
}

// 876 52896
	"875_546466" -> "876_581942" [label=""]
	"875_581956" -> "876_582007" [label=""]
subgraph cluster_step876{
	label=876	{
		"876_581942"[label="581942",color=grey]
		"876_582007"[label="582007",color=grey]
		[rank=same]
	}
	{
		"876_536412"[label="536412"]
		[rank=same]
	}
	"876_581942" -> "876_582007" [style=dashed,color=red,label=""]
	"876_582007" -> "876_536412" [style=dashed,color=red,label=""]
}

// 877 52909
	"876_581942" -> "877_582068" [label=""]
	"876_582007" -> "877_582133" [label=""]
	"876_536412" -> "877_536593" [label=""]
subgraph cluster_step877{
	label=877	{
		"877_536593"[label="536593",color=grey]
		"877_582068"[label="582068",color=grey]
		"877_582133"[label="582133",color=grey]
		[rank=same]
	}
	{
		"877_507875"[label="507875"]
		[rank=same]
	}
	"877_536593" -> "877_507875" [style=dashed,color=red,label=""]
	"877_582068" -> "877_582133" [style=dashed,color=red,label=""]
	"877_582133" -> "877_536593" [style=dashed,color=red,label=""]
}

// 878 52995
	"877_536593" -> "878_582209" [label=""]
	"877_582068" -> "878_582274" [label=""]
	"877_582133" -> "878_582339" [label=""]
	"877_507875" -> "878_582404" [label=""]
subgraph cluster_step878{
	label=878	{
		"878_582209"[label="582209",color=grey]
		"878_582274"[label="582274",color=grey]
		"878_582339"[label="582339",color=grey]
		"878_582404"[label="582404",color=grey]
		[rank=same]
	}
	{
		"878_582788"[label="582788"]
		"878_583553"[label="583553"]
		"878_583297"[label="583297"]
		"878_582724"[label="582724"]
		"878_583490"[label="583490"]
		"878_582850"[label="582850"]
		"878_583998"[label="583998"]
		"878_583298"[label="583298"]
		"878_584254"[label="584254"]
		"878_582723"[label="582723"]
		"878_583743"[label="583743"]
		"878_582598"[label="582598"]
		"878_582535"[label="582535"]
		"878_582472"[label="582472"]
		"878_582722"[label="582722"]
		"878_582787"[label="582787"]
		"878_583042"[label="583042"]
		"878_583425"[label="583425"]
		"878_583616"[label="583616"]
		"878_582786"[label="582786"]
		"878_583041"[label="583041"]
		"878_582851"[label="582851"]
		"878_583234"[label="583234"]
		"878_583489"[label="583489"]
		"878_582915"[label="582915"]
		"878_583426"[label="583426"]
		"878_583106"[label="583106"]
		"878_582660"[label="582660"]
		"878_583105"[label="583105"]
		"878_582852"[label="582852"]
		"878_583233"[label="583233"]
		"878_582914"[label="582914"]
		[rank=same]
	}
	"878_582209" -> "878_582472" [style=dashed,color=red,label=""]
	"878_582209" -> "878_582404" [style=dashed,color=red,label=""]
	"878_582274" -> "878_582535" [style=dashed,color=red,label=""]
	"878_582274" -> "878_582339" [style=dashed,color=red,label=""]
	"878_582339" -> "878_582598" [style=dashed,color=red,label=""]
	"878_582339" -> "878_582209" [style=dashed,color=red,label=""]
	"878_582404" -> "878_582660" [style=dashed,color=red,label=""]
	"878_582472" -> "878_582724" [style=dashed,color=red,label=""]
	"878_582472" -> "878_582723" [style=dashed,color=red,label=""]
	"878_582472" -> "878_582722" [style=dashed,color=red,label=""]
	"878_582535" -> "878_582788" [style=dashed,color=red,label=""]
	"878_582535" -> "878_582787" [style=dashed,color=red,label=""]
	"878_582535" -> "878_582786" [style=dashed,color=red,label=""]
	"878_582598" -> "878_582852" [style=dashed,color=red,label=""]
	"878_582598" -> "878_582851" [style=dashed,color=red,label=""]
	"878_582598" -> "878_582850" [style=dashed,color=red,label=""]
	"878_582660" -> "878_582915" [style=dashed,color=red,label=""]
	"878_582660" -> "878_582914" [style=dashed,color=red,label=""]
	"878_582724" -> "878_582915" [style=dashed,color=red,label=""]
	"878_582724" -> "878_582914" [style=dashed,color=red,label=""]
	"878_582723" -> "878_583042" [style=dashed,color=red,label=""]
	"878_582723" -> "878_583041" [style=dashed,color=red,label=""]
	"878_582722" -> "878_583106" [style=dashed,color=red,label=""]
	"878_582722" -> "878_583105" [style=dashed,color=red,label=""]
	"878_582788" -> "878_582852" [style=dashed,color=red,label=""]
	"878_582788" -> "878_582851" [style=dashed,color=red,label=""]
	"878_582788" -> "878_582850" [style=dashed,color=red,label=""]
	"878_582787" -> "878_583234" [style=dashed,color=red,label=""]
	"878_582787" -> "878_583233" [style=dashed,color=red,label=""]
	"878_582786" -> "878_583298" [style=dashed,color=red,label=""]
	"878_582786" -> "878_583297" [style=dashed,color=red,label=""]
	"878_582852" -> "878_582724" [style=dashed,color=red,label=""]
	"878_582852" -> "878_582723" [style=dashed,color=red,label=""]
	"878_582852" -> "878_582722" [style=dashed,color=red,label=""]
	"878_582851" -> "878_583426" [style=dashed,color=red,label=""]
	"878_582851" -> "878_583425" [style=dashed,color=red,label=""]
	"878_582850" -> "878_583490" [style=dashed,color=red,label=""]
	"878_582850" -> "878_583489" [style=dashed,color=red,label=""]
	"878_582915" -> "878_583553" [style=dashed,color=red,label=""]
	"878_582914" -> "878_583616" [style=dashed,color=red,label=""]
	"878_583042" -> "878_583553" [style=dashed,color=red,label=""]
	"878_583041" -> "878_583743" [style=dashed,color=red,label=""]
	"878_583106" -> "878_583616" [style=dashed,color=red,label=""]
	"878_583105" -> "878_583743" [style=dashed,color=red,label=""]
	"878_583234" -> "878_583426" [style=dashed,color=red,label=""]
	"878_583234" -> "878_583425" [style=dashed,color=red,label=""]
	"878_583233" -> "878_583998" [style=dashed,color=red,label=""]
	"878_583298" -> "878_583490" [style=dashed,color=red,label=""]
	"878_583298" -> "878_583489" [style=dashed,color=red,label=""]
	"878_583297" -> "878_583998" [style=dashed,color=red,label=""]
	"878_583426" -> "878_583042" [style=dashed,color=red,label=""]
	"878_583426" -> "878_583041" [style=dashed,color=red,label=""]
	"878_583425" -> "878_584254" [style=dashed,color=red,label=""]
	"878_583490" -> "878_583106" [style=dashed,color=red,label=""]
	"878_583490" -> "878_583105" [style=dashed,color=red,label=""]
	"878_583489" -> "878_584254" [style=dashed,color=red,label=""]
	"878_583998" -> "878_584254" [style=dashed,color=red,label=""]
	"878_584254" -> "878_583743" [style=dashed,color=red,label=""]
}

// 879 fail
subgraph cluster_step879{
	label=879}
}
